{
  "$build/chromium_tests_builder_config": {
    "builder_config": {
      "builder_db": {
        "entries": [
          {
            "builder_id": {
              "bucket": "ci",
              "builder": "Android WebView N (dbg)",
              "project": "chromium"
            },
            "builder_spec": {
              "build_gs_bucket": "chromium-android-archive",
              "builder_group": "chromium.android",
              "execution_mode": "TEST",
              "legacy_android_config": {
                "apply_configs": [
                  "remove_all_system_webviews"
                ],
                "config": "main_builder_mb"
              },
              "legacy_chromium_config": {
                "apply_configs": [
                  "download_vr_test_apks"
                ],
                "build_config": "Debug",
                "config": "android",
                "target_bits": 64,
                "target_platform": "android"
              },
              "legacy_gclient_config": {
                "apply_configs": [
                  "android"
                ],
                "config": "chromium"
              },
              "parent": {
                "bucket": "ci",
                "builder": "Android arm64 Builder (dbg)",
                "project": "chromium"
              }
            }
          },
          {
            "builder_id": {
              "bucket": "ci",
              "builder": "Android arm64 Builder (dbg)",
              "project": "chromium"
            },
            "builder_spec": {
              "build_gs_bucket": "chromium-android-archive",
              "builder_group": "chromium.android",
              "execution_mode": "COMPILE_AND_TEST",
              "legacy_android_config": {
                "config": "main_builder_mb"
              },
              "legacy_chromium_config": {
                "apply_configs": [
                  "download_vr_test_apks"
                ],
                "build_config": "Debug",
                "config": "android",
                "target_bits": 64,
                "target_platform": "android"
              },
              "legacy_gclient_config": {
                "apply_configs": [
                  "android"
                ],
                "config": "chromium"
              }
            }
          }
        ]
      },
      "builder_ids": [
        {
          "bucket": "ci",
          "builder": "Android WebView N (dbg)",
          "project": "chromium"
        }
      ],
      "mirroring_builder_group_and_names": [
        {
          "builder": "android-webview-nougat-arm64-dbg",
          "group": "tryserver.chromium.android"
        },
        {
          "builder": "android_arm64_dbg_recipe",
          "group": "tryserver.chromium.android"
        },
        {
          "builder": "android_compile_dbg",
          "group": "tryserver.chromium.android"
        },
        {
          "builder": "android_unswarmed_pixel_aosp",
          "group": "tryserver.chromium.android"
        }
      ]
    }
  },
  "$recipe_engine/resultdb/test_presentation": {
    "column_keys": [],
    "grouping_keys": [
      "status",
      "v.test_suite"
    ]
  },
  "builder_group": "chromium.android",
  "recipe": "chromium",
  "sheriff_rotations": [
    "android"
  ]
}