{
  "$build/chromium_tests_builder_config": {
    "builder_config": {
      "builder_db": {
        "entries": [
          {
            "builder_id": {
              "bucket": "ci",
              "builder": "mac-archive-rel",
              "project": "chromium"
            },
            "builder_spec": {
              "builder_group": "chromium",
              "execution_mode": "COMPILE_AND_TEST",
              "legacy_chromium_config": {
                "apply_configs": [
                  "clobber",
                  "mb",
                  "goma_use_local"
                ],
                "build_config": "Release",
                "config": "chromium",
                "target_bits": 64
              },
              "legacy_gclient_config": {
                "config": "chromium"
              }
            }
          }
        ]
      },
      "builder_ids": [
        {
          "bucket": "ci",
          "builder": "mac-archive-rel",
          "project": "chromium"
        }
      ]
    }
  },
  "$build/goma": {
    "rpc_extra_params": "?prod",
    "server_host": "goma.chromium.org"
  },
  "$build/reclient": {
    "instance": "rbe-chromium-untrusted",
    "metrics_project": "chromium-reclient-metrics"
  },
  "$recipe_engine/resultdb/test_presentation": {
    "column_keys": [],
    "grouping_keys": [
      "status",
      "v.test_suite"
    ]
  },
  "builder_group": "tryserver.chromium.mac",
  "recipe": "chromium_trybot"
}